f1af35cc1b~4~10/24/2020 10:15:00 PM~888~3~RESERVED~FAN_PIT~False
9f1ba5f08a~4~10/24/2020 10:15:00 PM~888~3~RESERVED~FAN_PIT~False
0087066f32~4~10/24/2020 10:15:00 PM~444~3~RESERVED~REGULAR~False
8d1c47f683~4~10/24/2020 10:15:00 PM~444~3~RESERVED~REGULAR~False
c4e99eb4a9~4~10/24/2020 10:15:00 PM~444~3~RESERVED~REGULAR~False
19bbcc38fa~4~10/24/2020 10:15:00 PM~888~2~RESERVED~FAN_PIT~False
4bee2ab6ac~4~10/24/2020 10:15:00 PM~888~2~CANCELED~FAN_PIT~False
6365c9089f~5~9/19/2020 7:28:00 PM~246~3~RESERVED~FAN_PIT~False
6365c9077f~1~9/14/2020 12:30:00 PM~1200~3~RESERVED~FAN_PIT~False
